^D:\APPLICATION\GALACTIC-WAR\GALACTIC_WAR\GALACTIC_WAR\BUTTON.CPP
/c /I"D:\SFML\SFML-2.5.1\INCLUDE" /Zi /nologo /W3 /WX- /diagnostics:column /sdl /O2 /Oi /Oy- /GL /D WIN32 /D NDEBUG /D _CONSOLE /D _UNICODE /D UNICODE /Gm- /EHsc /MD /GS /Gy /fp:precise /permissive- /Zc:wchar_t /Zc:forScope /Zc:inline /Fo"RELEASE\\" /Fd"RELEASE\VC142.PDB" /Gd /TP /analyze- /FC D:\APPLICATION\GALACTIC-WAR\GALACTIC_WAR\GALACTIC_WAR\BUTTON.CPP
^D:\APPLICATION\GALACTIC-WAR\GALACTIC_WAR\GALACTIC_WAR\E1.CPP
/c /I"D:\SFML\SFML-2.5.1\INCLUDE" /Zi /nologo /W3 /WX- /diagnostics:column /sdl /O2 /Oi /Oy- /GL /D WIN32 /D NDEBUG /D _CONSOLE /D _UNICODE /D UNICODE /Gm- /EHsc /MD /GS /Gy /fp:precise /permissive- /Zc:wchar_t /Zc:forScope /Zc:inline /Fo"RELEASE\\" /Fd"RELEASE\VC142.PDB" /Gd /TP /analyze- /FC D:\APPLICATION\GALACTIC-WAR\GALACTIC_WAR\GALACTIC_WAR\E1.CPP
^D:\APPLICATION\GALACTIC-WAR\GALACTIC_WAR\GALACTIC_WAR\ENEMIE.CPP
/c /I"D:\SFML\SFML-2.5.1\INCLUDE" /Zi /nologo /W3 /WX- /diagnostics:column /sdl /O2 /Oi /Oy- /GL /D WIN32 /D NDEBUG /D _CONSOLE /D _UNICODE /D UNICODE /Gm- /EHsc /MD /GS /Gy /fp:precise /permissive- /Zc:wchar_t /Zc:forScope /Zc:inline /Fo"RELEASE\\" /Fd"RELEASE\VC142.PDB" /Gd /TP /analyze- /FC D:\APPLICATION\GALACTIC-WAR\GALACTIC_WAR\GALACTIC_WAR\ENEMIE.CPP
^D:\APPLICATION\GALACTIC-WAR\GALACTIC_WAR\GALACTIC_WAR\EXPLOSION.CPP
/c /I"D:\SFML\SFML-2.5.1\INCLUDE" /Zi /nologo /W3 /WX- /diagnostics:column /sdl /O2 /Oi /Oy- /GL /D WIN32 /D NDEBUG /D _CONSOLE /D _UNICODE /D UNICODE /Gm- /EHsc /MD /GS /Gy /fp:precise /permissive- /Zc:wchar_t /Zc:forScope /Zc:inline /Fo"RELEASE\\" /Fd"RELEASE\VC142.PDB" /Gd /TP /analyze- /FC D:\APPLICATION\GALACTIC-WAR\GALACTIC_WAR\GALACTIC_WAR\EXPLOSION.CPP
^D:\APPLICATION\GALACTIC-WAR\GALACTIC_WAR\GALACTIC_WAR\GALACTICOBJECT.CPP
/c /I"D:\SFML\SFML-2.5.1\INCLUDE" /Zi /nologo /W3 /WX- /diagnostics:column /sdl /O2 /Oi /Oy- /GL /D WIN32 /D NDEBUG /D _CONSOLE /D _UNICODE /D UNICODE /Gm- /EHsc /MD /GS /Gy /fp:precise /permissive- /Zc:wchar_t /Zc:forScope /Zc:inline /Fo"RELEASE\\" /Fd"RELEASE\VC142.PDB" /Gd /TP /analyze- /FC D:\APPLICATION\GALACTIC-WAR\GALACTIC_WAR\GALACTIC_WAR\GALACTICOBJECT.CPP
^D:\APPLICATION\GALACTIC-WAR\GALACTIC_WAR\GALACTIC_WAR\LEVEL.CPP
/c /I"D:\SFML\SFML-2.5.1\INCLUDE" /Zi /nologo /W3 /WX- /diagnostics:column /sdl /O2 /Oi /Oy- /GL /D WIN32 /D NDEBUG /D _CONSOLE /D _UNICODE /D UNICODE /Gm- /EHsc /MD /GS /Gy /fp:precise /permissive- /Zc:wchar_t /Zc:forScope /Zc:inline /Fo"RELEASE\\" /Fd"RELEASE\VC142.PDB" /Gd /TP /analyze- /FC D:\APPLICATION\GALACTIC-WAR\GALACTIC_WAR\GALACTIC_WAR\LEVEL.CPP
^D:\APPLICATION\GALACTIC-WAR\GALACTIC_WAR\GALACTIC_WAR\MAIN.CPP
/c /I"D:\SFML\SFML-2.5.1\INCLUDE" /Zi /nologo /W3 /WX- /diagnostics:column /sdl /O2 /Oi /Oy- /GL /D WIN32 /D NDEBUG /D _CONSOLE /D _UNICODE /D UNICODE /Gm- /EHsc /MD /GS /Gy /fp:precise /permissive- /Zc:wchar_t /Zc:forScope /Zc:inline /Fo"RELEASE\\" /Fd"RELEASE\VC142.PDB" /Gd /TP /analyze- /FC D:\APPLICATION\GALACTIC-WAR\GALACTIC_WAR\GALACTIC_WAR\MAIN.CPP
^D:\APPLICATION\GALACTIC-WAR\GALACTIC_WAR\GALACTIC_WAR\MENU.CPP
/c /I"D:\SFML\SFML-2.5.1\INCLUDE" /Zi /nologo /W3 /WX- /diagnostics:column /sdl /O2 /Oi /Oy- /GL /D WIN32 /D NDEBUG /D _CONSOLE /D _UNICODE /D UNICODE /Gm- /EHsc /MD /GS /Gy /fp:precise /permissive- /Zc:wchar_t /Zc:forScope /Zc:inline /Fo"RELEASE\\" /Fd"RELEASE\VC142.PDB" /Gd /TP /analyze- /FC D:\APPLICATION\GALACTIC-WAR\GALACTIC_WAR\GALACTIC_WAR\MENU.CPP
^D:\APPLICATION\GALACTIC-WAR\GALACTIC_WAR\GALACTIC_WAR\PLAYER.CPP
/c /I"D:\SFML\SFML-2.5.1\INCLUDE" /Zi /nologo /W3 /WX- /diagnostics:column /sdl /O2 /Oi /Oy- /GL /D WIN32 /D NDEBUG /D _CONSOLE /D _UNICODE /D UNICODE /Gm- /EHsc /MD /GS /Gy /fp:precise /permissive- /Zc:wchar_t /Zc:forScope /Zc:inline /Fo"RELEASE\\" /Fd"RELEASE\VC142.PDB" /Gd /TP /analyze- /FC D:\APPLICATION\GALACTIC-WAR\GALACTIC_WAR\GALACTIC_WAR\PLAYER.CPP
^D:\APPLICATION\GALACTIC-WAR\GALACTIC_WAR\GALACTIC_WAR\BULLET.CPP
/c /I"D:\SFML\SFML-2.5.1\INCLUDE" /Zi /nologo /W3 /WX- /diagnostics:column /sdl /O2 /Oi /Oy- /GL /D WIN32 /D NDEBUG /D _CONSOLE /D _UNICODE /D UNICODE /Gm- /EHsc /MD /GS /Gy /fp:precise /permissive- /Zc:wchar_t /Zc:forScope /Zc:inline /Fo"RELEASE\\" /Fd"RELEASE\VC142.PDB" /Gd /TP /analyze- /FC D:\APPLICATION\GALACTIC-WAR\GALACTIC_WAR\GALACTIC_WAR\BULLET.CPP
^D:\APPLICATION\GALACTIC-WAR\GALACTIC_WAR\GALACTIC_WAR\PROJECTIL.CPP
/c /I"D:\SFML\SFML-2.5.1\INCLUDE" /Zi /nologo /W3 /WX- /diagnostics:column /sdl /O2 /Oi /Oy- /GL /D WIN32 /D NDEBUG /D _CONSOLE /D _UNICODE /D UNICODE /Gm- /EHsc /MD /GS /Gy /fp:precise /permissive- /Zc:wchar_t /Zc:forScope /Zc:inline /Fo"RELEASE\\" /Fd"RELEASE\VC142.PDB" /Gd /TP /analyze- /FC D:\APPLICATION\GALACTIC-WAR\GALACTIC_WAR\GALACTIC_WAR\PROJECTIL.CPP
^D:\APPLICATION\GALACTIC-WAR\GALACTIC_WAR\GALACTIC_WAR\BONUS.CPP
/c /I"D:\SFML\SFML-2.5.1\INCLUDE" /Zi /nologo /W3 /WX- /diagnostics:column /sdl /O2 /Oi /Oy- /GL /D WIN32 /D NDEBUG /D _CONSOLE /D _UNICODE /D UNICODE /Gm- /EHsc /MD /GS /Gy /fp:precise /permissive- /Zc:wchar_t /Zc:forScope /Zc:inline /Fo"RELEASE\\" /Fd"RELEASE\VC142.PDB" /Gd /TP /analyze- /FC D:\APPLICATION\GALACTIC-WAR\GALACTIC_WAR\GALACTIC_WAR\BONUS.CPP
