^D:\APPLICATION\GALACTIC_WAR\GALACTIC_WAR\BONUS.CPP|D:\APPLICATION\GALACTIC_WAR\GALACTIC_WAR\BULLET.CPP|D:\APPLICATION\GALACTIC_WAR\GALACTIC_WAR\BUTTON.CPP|D:\APPLICATION\GALACTIC_WAR\GALACTIC_WAR\E1.CPP|D:\APPLICATION\GALACTIC_WAR\GALACTIC_WAR\ENEMIE.CPP|D:\APPLICATION\GALACTIC_WAR\GALACTIC_WAR\EXPLOSION.CPP|D:\APPLICATION\GALACTIC_WAR\GALACTIC_WAR\GALACTICOBJECT.CPP|D:\APPLICATION\GALACTIC_WAR\GALACTIC_WAR\LEVEL.CPP|D:\APPLICATION\GALACTIC_WAR\GALACTIC_WAR\MAIN.CPP|D:\APPLICATION\GALACTIC_WAR\GALACTIC_WAR\MENU.CPP|D:\APPLICATION\GALACTIC_WAR\GALACTIC_WAR\PLAYER.CPP|D:\APPLICATION\GALACTIC_WAR\GALACTIC_WAR\PROJECTIL.CPP
D:\APPLICATION\GALACTIC_WAR\GALACTIC_WAR\DEBUG\VC142.PDB
D:\APPLICATION\GALACTIC_WAR\GALACTIC_WAR\DEBUG\VC142.IDB
D:\APPLICATION\GALACTIC_WAR\GALACTIC_WAR\DEBUG\BONUS.OBJ
D:\APPLICATION\GALACTIC_WAR\GALACTIC_WAR\DEBUG\PROJECTIL.OBJ
D:\APPLICATION\GALACTIC_WAR\GALACTIC_WAR\DEBUG\BULLET.OBJ
D:\APPLICATION\GALACTIC_WAR\GALACTIC_WAR\DEBUG\PLAYER.OBJ
D:\APPLICATION\GALACTIC_WAR\GALACTIC_WAR\DEBUG\MENU.OBJ
D:\APPLICATION\GALACTIC_WAR\GALACTIC_WAR\DEBUG\MAIN.OBJ
D:\APPLICATION\GALACTIC_WAR\GALACTIC_WAR\DEBUG\LEVEL.OBJ
D:\APPLICATION\GALACTIC_WAR\GALACTIC_WAR\DEBUG\GALACTICOBJECT.OBJ
D:\APPLICATION\GALACTIC_WAR\GALACTIC_WAR\DEBUG\EXPLOSION.OBJ
D:\APPLICATION\GALACTIC_WAR\GALACTIC_WAR\DEBUG\ENEMIE.OBJ
D:\APPLICATION\GALACTIC_WAR\GALACTIC_WAR\DEBUG\E1.OBJ
D:\APPLICATION\GALACTIC_WAR\GALACTIC_WAR\DEBUG\BUTTON.OBJ
^D:\APPLICATION\GALACTIC_WAR\GALACTIC_WAR\BONUS.CPP
D:\APPLICATION\GALACTIC_WAR\GALACTIC_WAR\DEBUG\VC142.PDB
^D:\APPLICATION\GALACTIC_WAR\GALACTIC_WAR\BULLET.CPP|D:\APPLICATION\GALACTIC_WAR\GALACTIC_WAR\E1.CPP|D:\APPLICATION\GALACTIC_WAR\GALACTIC_WAR\ENEMIE.CPP|D:\APPLICATION\GALACTIC_WAR\GALACTIC_WAR\EXPLOSION.CPP|D:\APPLICATION\GALACTIC_WAR\GALACTIC_WAR\GALACTICOBJECT.CPP|D:\APPLICATION\GALACTIC_WAR\GALACTIC_WAR\LEVEL.CPP|D:\APPLICATION\GALACTIC_WAR\GALACTIC_WAR\MAIN.CPP|D:\APPLICATION\GALACTIC_WAR\GALACTIC_WAR\MENU.CPP|D:\APPLICATION\GALACTIC_WAR\GALACTIC_WAR\PLAYER.CPP|D:\APPLICATION\GALACTIC_WAR\GALACTIC_WAR\PROJECTIL.CPP
D:\APPLICATION\GALACTIC_WAR\GALACTIC_WAR\DEBUG\VC142.PDB
D:\APPLICATION\GALACTIC_WAR\GALACTIC_WAR\DEBUG\VC142.IDB
D:\APPLICATION\GALACTIC_WAR\GALACTIC_WAR\DEBUG\PROJECTIL.OBJ
^D:\APPLICATION\GALACTIC_WAR\GALACTIC_WAR\PROJECTIL.CPP
D:\APPLICATION\GALACTIC_WAR\GALACTIC_WAR\DEBUG\PROJECTIL.OBJ
^D:\APPLICATION\GALACTIC_WAR\GALACTIC_WAR\BULLET.CPP|D:\APPLICATION\GALACTIC_WAR\GALACTIC_WAR\LEVEL.CPP|D:\APPLICATION\GALACTIC_WAR\GALACTIC_WAR\MAIN.CPP
D:\APPLICATION\GALACTIC_WAR\GALACTIC_WAR\DEBUG\VC142.PDB
D:\APPLICATION\GALACTIC_WAR\GALACTIC_WAR\DEBUG\VC142.IDB
D:\APPLICATION\GALACTIC_WAR\GALACTIC_WAR\DEBUG\BULLET.OBJ
D:\APPLICATION\GALACTIC_WAR\GALACTIC_WAR\DEBUG\MAIN.OBJ
D:\APPLICATION\GALACTIC_WAR\GALACTIC_WAR\DEBUG\LEVEL.OBJ
^D:\APPLICATION\GALACTIC_WAR\GALACTIC_WAR\E1.CPP|D:\APPLICATION\GALACTIC_WAR\GALACTIC_WAR\ENEMIE.CPP|D:\APPLICATION\GALACTIC_WAR\GALACTIC_WAR\LEVEL.CPP
D:\APPLICATION\GALACTIC_WAR\GALACTIC_WAR\DEBUG\VC142.PDB
D:\APPLICATION\GALACTIC_WAR\GALACTIC_WAR\DEBUG\VC142.IDB
D:\APPLICATION\GALACTIC_WAR\GALACTIC_WAR\DEBUG\LEVEL.OBJ
D:\APPLICATION\GALACTIC_WAR\GALACTIC_WAR\DEBUG\ENEMIE.OBJ
D:\APPLICATION\GALACTIC_WAR\GALACTIC_WAR\DEBUG\E1.OBJ
^D:\APPLICATION\GALACTIC_WAR\GALACTIC_WAR\BULLET.CPP|D:\APPLICATION\GALACTIC_WAR\GALACTIC_WAR\E1.CPP|D:\APPLICATION\GALACTIC_WAR\GALACTIC_WAR\ENEMIE.CPP|D:\APPLICATION\GALACTIC_WAR\GALACTIC_WAR\EXPLOSION.CPP|D:\APPLICATION\GALACTIC_WAR\GALACTIC_WAR\GALACTICOBJECT.CPP|D:\APPLICATION\GALACTIC_WAR\GALACTIC_WAR\LEVEL.CPP|D:\APPLICATION\GALACTIC_WAR\GALACTIC_WAR\MAIN.CPP|D:\APPLICATION\GALACTIC_WAR\GALACTIC_WAR\MENU.CPP|D:\APPLICATION\GALACTIC_WAR\GALACTIC_WAR\PLAYER.CPP
D:\APPLICATION\GALACTIC_WAR\GALACTIC_WAR\DEBUG\VC142.PDB
D:\APPLICATION\GALACTIC_WAR\GALACTIC_WAR\DEBUG\VC142.IDB
D:\APPLICATION\GALACTIC_WAR\GALACTIC_WAR\DEBUG\MAIN.OBJ
D:\APPLICATION\GALACTIC_WAR\GALACTIC_WAR\DEBUG\LEVEL.OBJ
D:\APPLICATION\GALACTIC_WAR\GALACTIC_WAR\DEBUG\ENEMIE.OBJ
D:\APPLICATION\GALACTIC_WAR\GALACTIC_WAR\DEBUG\BULLET.OBJ
D:\APPLICATION\GALACTIC_WAR\GALACTIC_WAR\DEBUG\MENU.OBJ
D:\APPLICATION\GALACTIC_WAR\GALACTIC_WAR\DEBUG\GALACTICOBJECT.OBJ
D:\APPLICATION\GALACTIC_WAR\GALACTIC_WAR\DEBUG\EXPLOSION.OBJ
D:\APPLICATION\GALACTIC_WAR\GALACTIC_WAR\DEBUG\E1.OBJ
^D:\APPLICATION\GALACTIC_WAR\GALACTIC_WAR\E1.CPP
D:\APPLICATION\GALACTIC_WAR\GALACTIC_WAR\DEBUG\E1.OBJ
^D:\APPLICATION\GALACTIC_WAR\GALACTIC_WAR\EXPLOSION.CPP
D:\APPLICATION\GALACTIC_WAR\GALACTIC_WAR\DEBUG\EXPLOSION.OBJ
^D:\APPLICATION\GALACTIC_WAR\GALACTIC_WAR\GALACTICOBJECT.CPP
D:\APPLICATION\GALACTIC_WAR\GALACTIC_WAR\DEBUG\GALACTICOBJECT.OBJ
^D:\APPLICATION\GALACTIC_WAR\GALACTIC_WAR\BULLET.CPP
D:\APPLICATION\GALACTIC_WAR\GALACTIC_WAR\DEBUG\BULLET.OBJ
^D:\APPLICATION\GALACTIC_WAR\GALACTIC_WAR\ENEMIE.CPP
D:\APPLICATION\GALACTIC_WAR\GALACTIC_WAR\DEBUG\ENEMIE.OBJ
^D:\APPLICATION\GALACTIC_WAR\GALACTIC_WAR\LEVEL.CPP|D:\APPLICATION\GALACTIC_WAR\GALACTIC_WAR\PLAYER.CPP
D:\APPLICATION\GALACTIC_WAR\GALACTIC_WAR\DEBUG\VC142.PDB
D:\APPLICATION\GALACTIC_WAR\GALACTIC_WAR\DEBUG\VC142.IDB
D:\APPLICATION\GALACTIC_WAR\GALACTIC_WAR\DEBUG\LEVEL.OBJ
^D:\APPLICATION\GALACTIC_WAR\GALACTIC_WAR\PLAYER.CPP
D:\APPLICATION\GALACTIC_WAR\GALACTIC_WAR\DEBUG\VC142.PDB
D:\APPLICATION\GALACTIC_WAR\GALACTIC_WAR\DEBUG\VC142.IDB
D:\APPLICATION\GALACTIC_WAR\GALACTIC_WAR\DEBUG\PLAYER.OBJ
^D:\APPLICATION\GALACTIC_WAR\GALACTIC_WAR\BUTTON.CPP|D:\APPLICATION\GALACTIC_WAR\GALACTIC_WAR\MAIN.CPP
D:\APPLICATION\GALACTIC_WAR\GALACTIC_WAR\DEBUG\VC142.PDB
D:\APPLICATION\GALACTIC_WAR\GALACTIC_WAR\DEBUG\VC142.IDB
D:\APPLICATION\GALACTIC_WAR\GALACTIC_WAR\DEBUG\MAIN.OBJ
D:\APPLICATION\GALACTIC_WAR\GALACTIC_WAR\DEBUG\BUTTON.OBJ
^D:\APPLICATION\GALACTIC_WAR\GALACTIC_WAR\BUTTON.CPP|D:\APPLICATION\GALACTIC_WAR\GALACTIC_WAR\MAIN.CPP|D:\APPLICATION\GALACTIC_WAR\GALACTIC_WAR\MENU.CPP
D:\APPLICATION\GALACTIC_WAR\GALACTIC_WAR\DEBUG\VC142.PDB
D:\APPLICATION\GALACTIC_WAR\GALACTIC_WAR\DEBUG\VC142.IDB
D:\APPLICATION\GALACTIC_WAR\GALACTIC_WAR\DEBUG\MAIN.OBJ
D:\APPLICATION\GALACTIC_WAR\GALACTIC_WAR\DEBUG\MENU.OBJ
D:\APPLICATION\GALACTIC_WAR\GALACTIC_WAR\DEBUG\BUTTON.OBJ
^D:\APPLICATION\GALACTIC_WAR\GALACTIC_WAR\BUTTON.CPP
D:\APPLICATION\GALACTIC_WAR\GALACTIC_WAR\DEBUG\VC142.PDB
^D:\APPLICATION\GALACTIC_WAR\GALACTIC_WAR\MENU.CPP
D:\APPLICATION\GALACTIC_WAR\GALACTIC_WAR\DEBUG\VC142.PDB
^D:\APPLICATION\GALACTIC_WAR\GALACTIC_WAR\LEVEL.CPP|D:\APPLICATION\GALACTIC_WAR\GALACTIC_WAR\MAIN.CPP
D:\APPLICATION\GALACTIC_WAR\GALACTIC_WAR\DEBUG\VC142.PDB
D:\APPLICATION\GALACTIC_WAR\GALACTIC_WAR\DEBUG\VC142.IDB
D:\APPLICATION\GALACTIC_WAR\GALACTIC_WAR\DEBUG\MAIN.OBJ
D:\APPLICATION\GALACTIC_WAR\GALACTIC_WAR\DEBUG\LEVEL.OBJ
^D:\APPLICATION\GALACTIC_WAR\GALACTIC_WAR\LEVEL.CPP
D:\APPLICATION\GALACTIC_WAR\GALACTIC_WAR\DEBUG\VC142.PDB
^D:\APPLICATION\GALACTIC_WAR\GALACTIC_WAR\MAIN.CPP
D:\APPLICATION\GALACTIC_WAR\GALACTIC_WAR\DEBUG\VC142.PDB
