^D:\APPLICATION\GALACTIC_WAR\GALACTIC_WAR\DEBUG\BONUS.OBJ|D:\APPLICATION\GALACTIC_WAR\GALACTIC_WAR\DEBUG\BULLET.OBJ|D:\APPLICATION\GALACTIC_WAR\GALACTIC_WAR\DEBUG\BUTTON.OBJ|D:\APPLICATION\GALACTIC_WAR\GALACTIC_WAR\DEBUG\E1.OBJ|D:\APPLICATION\GALACTIC_WAR\GALACTIC_WAR\DEBUG\ENEMIE.OBJ|D:\APPLICATION\GALACTIC_WAR\GALACTIC_WAR\DEBUG\EXPLOSION.OBJ|D:\APPLICATION\GALACTIC_WAR\GALACTIC_WAR\DEBUG\GALACTICOBJECT.OBJ|D:\APPLICATION\GALACTIC_WAR\GALACTIC_WAR\DEBUG\LEVEL.OBJ|D:\APPLICATION\GALACTIC_WAR\GALACTIC_WAR\DEBUG\MAIN.OBJ|D:\APPLICATION\GALACTIC_WAR\GALACTIC_WAR\DEBUG\MENU.OBJ|D:\APPLICATION\GALACTIC_WAR\GALACTIC_WAR\DEBUG\PLAYER.OBJ|D:\APPLICATION\GALACTIC_WAR\GALACTIC_WAR\DEBUG\PROJECTIL.OBJ
D:\SFML\SFML-2.5.1\LIB\SFML-WINDOW-D.LIB
D:\SFML\SFML-2.5.1\LIB\SFML-SYSTEM-D.LIB
D:\SFML\SFML-2.5.1\LIB\SFML-MAIN-D.LIB
D:\SFML\SFML-2.5.1\LIB\SFML-GRAPHICS-D.LIB
C:\PROGRAM FILES (X86)\WINDOWS KITS\10\LIB\10.0.18362.0\UM\X86\KERNEL32.LIB
C:\PROGRAM FILES (X86)\WINDOWS KITS\10\LIB\10.0.18362.0\UM\X86\USER32.LIB
C:\PROGRAM FILES (X86)\WINDOWS KITS\10\LIB\10.0.18362.0\UM\X86\GDI32.LIB
C:\PROGRAM FILES (X86)\WINDOWS KITS\10\LIB\10.0.18362.0\UM\X86\WINSPOOL.LIB
C:\PROGRAM FILES (X86)\WINDOWS KITS\10\LIB\10.0.18362.0\UM\X86\COMDLG32.LIB
C:\PROGRAM FILES (X86)\WINDOWS KITS\10\LIB\10.0.18362.0\UM\X86\ADVAPI32.LIB
C:\PROGRAM FILES (X86)\WINDOWS KITS\10\LIB\10.0.18362.0\UM\X86\SHELL32.LIB
C:\PROGRAM FILES (X86)\WINDOWS KITS\10\LIB\10.0.18362.0\UM\X86\OLE32.LIB
C:\PROGRAM FILES (X86)\WINDOWS KITS\10\LIB\10.0.18362.0\UM\X86\OLEAUT32.LIB
C:\PROGRAM FILES (X86)\WINDOWS KITS\10\LIB\10.0.18362.0\UM\X86\UUID.LIB
C:\PROGRAM FILES (X86)\WINDOWS KITS\10\LIB\10.0.18362.0\UM\X86\ODBC32.LIB
C:\PROGRAM FILES (X86)\WINDOWS KITS\10\LIB\10.0.18362.0\UM\X86\ODBCCP32.LIB
D:\APPLICATION\GALACTIC_WAR\GALACTIC_WAR\DEBUG\BUTTON.OBJ
D:\APPLICATION\GALACTIC_WAR\GALACTIC_WAR\DEBUG\E1.OBJ
D:\APPLICATION\GALACTIC_WAR\GALACTIC_WAR\DEBUG\ENEMIE.OBJ
D:\APPLICATION\GALACTIC_WAR\GALACTIC_WAR\DEBUG\EXPLOSION.OBJ
D:\APPLICATION\GALACTIC_WAR\GALACTIC_WAR\DEBUG\GALACTICOBJECT.OBJ
D:\APPLICATION\GALACTIC_WAR\GALACTIC_WAR\DEBUG\LEVEL.OBJ
D:\APPLICATION\GALACTIC_WAR\GALACTIC_WAR\DEBUG\MAIN.OBJ
D:\APPLICATION\GALACTIC_WAR\GALACTIC_WAR\DEBUG\MENU.OBJ
D:\APPLICATION\GALACTIC_WAR\GALACTIC_WAR\DEBUG\PLAYER.OBJ
D:\APPLICATION\GALACTIC_WAR\GALACTIC_WAR\DEBUG\BULLET.OBJ
D:\APPLICATION\GALACTIC_WAR\GALACTIC_WAR\DEBUG\PROJECTIL.OBJ
D:\APPLICATION\GALACTIC_WAR\GALACTIC_WAR\DEBUG\BONUS.OBJ
C:\WINDOWS\SYSTEM32\TZRES.DLL
C:\WINDOWS\GLOBALIZATION\SORTING\SORTDEFAULT.NLS
C:\PROGRAM FILES (X86)\MICROSOFT VISUAL STUDIO\2019\COMMUNITY\VC\TOOLS\MSVC\14.27.29110\LIB\X86\MSVCPRTD.LIB
C:\PROGRAM FILES (X86)\MICROSOFT VISUAL STUDIO\2019\COMMUNITY\VC\TOOLS\MSVC\14.27.29110\LIB\X86\MSVCRTD.LIB
C:\PROGRAM FILES (X86)\MICROSOFT VISUAL STUDIO\2019\COMMUNITY\VC\TOOLS\MSVC\14.27.29110\LIB\X86\OLDNAMES.LIB
C:\PROGRAM FILES (X86)\MICROSOFT VISUAL STUDIO\2019\COMMUNITY\VC\TOOLS\MSVC\14.27.29110\LIB\X86\VCRUNTIMED.LIB
C:\PROGRAM FILES (X86)\WINDOWS KITS\10\LIB\10.0.18362.0\UCRT\X86\UCRTD.LIB
C:\PROGRAM FILES (X86)\MICROSOFT VISUAL STUDIO\2019\COMMUNITY\VC\TOOLS\MSVC\14.27.29110\BIN\HOSTX86\X86\MSPDBSRV.EXE
